; Engine configuration file.
; It's best edited using the editor UI and not directly,
; since the parameters that go here are not all obvious.
;
; Format:
;   [section] ; section goes between []
;   param=value ; assign values to parameters

config_version=4

_global_script_classes=[ {
"base": "Reference",
"class": "GutHookScript",
"language": "GDScript",
"path": "res://addons/gut/hook_script.gd"
}, {
"base": "Node",
"class": "GutTest",
"language": "GDScript",
"path": "res://addons/gut/test.gd"
}, {
"base": "Reference",
"class": "HotKeys",
"language": "GDScript",
"path": "res://classes/HotKeys.gd"
}, {
"base": "Reference",
"class": "KeyboardMocker",
"language": "GDScript",
"path": "res://test/mocks/KeyboardMocker.gd"
}, {
"base": "Reference",
"class": "ScanCodes",
"language": "GDScript",
"path": "res://classes/ScanCodes.gd"
}, {
"base": "Reference",
"class": "State",
"language": "GDScript",
"path": "res://classes/State.gd"
}, {
"base": "Reference",
"class": "StateMachine",
"language": "GDScript",
"path": "res://classes/StateMachine.gd"
}, {
"base": "Reference",
"class": "States",
"language": "GDScript",
"path": "res://classes/States.gd"
} ]
_global_script_class_icons={
"GutHookScript": "",
"GutTest": "",
"HotKeys": "",
"KeyboardMocker": "",
"ScanCodes": "",
"State": "",
"StateMachine": "",
"States": ""
}

[application]

config/name="Scritch 3 . 0"
run/main_scene="res://Main.tscn"
config/icon="res://icon.png"

[display]

window/size/width=722
window/size/height=434
window/size/resizable=false

[editor_plugins]

enabled=PoolStringArray( "res://addons/gut/plugin.cfg" )

[gui]

common/drop_mouse_on_gui_input_disabled=true

[physics]

common/enable_pause_aware_picking=true

[rendering]

environment/default_environment="res://default_env.tres"
